{
  "logging": {
    "level": "notset"
  },
  "ibm_data_centers": {
    "acars": {
      "demo": "https://demoa.wsifusion.com/AcarsMsg.asmx"
    },
    "flight_plan": {
      "demo": "https://demoa.wsifusion.com/FlightPlan.asmx"
    },
    "flight_schedule": {
      "demo": "https://demoa.wsifusion.com/SchedMov.asmx"
    },
    "position": {
      "demo": "https://demoa.wsifusion.com/PosRep.asmx"
    }
  }
}